…
    ## Classes 'tbl_df', 'tbl' and 'data.frame':    1704 obs. of  6 variables:
    ##  $ country  : Factor w/ 142 levels "Afghanistan",..: 1 1 1 1 1 1 1 1 1 1 ...
    ##  $ continent: Factor w/ 5 levels "Africa","Americas",..: 3 3 3 3 3 3 3 3 3 3 ...
    ##  $ year     : int  1952 1957 1962 1967 1972 1977 1982 1987 1992 1997 ...
    ##  $ lifeExp  : num  28.8 30.3 32 34 36.1 ...
    ##  $ pop      : int  8425333 9240934 10267083 11537966 13079460 14880372 12881816 13867957 16317921 22227415 ...
    ##  $ gdpPercap: num  779 821 853 836 740 ...

``` r
gapminder  
```

    ## # A tibble: 1,704 x 6
    ##    country     continent  year lifeExp      pop gdpPercap
    ##    <fct>       <fct>     <int>   <dbl>    <int>     <dbl>
    ##  1 Afghanistan Asia       1952    28.8  8425333      779.
    ##  2 Afghanistan Asia       1957    30.3  9240934      821.
    ##  3 Afghanistan Asia       1962    32.0 10267083      853.
    ##  4 Afghanistan Asia       1967    34.0 11537966      836.
    ##  5 Afghanistan Asia       1972    36.1 13079460      740.
    ##  6 Afghanistan Asia       1977    38.4 14880372      786.
    ##  7 Afghanistan Asia       1982    39.9 12881816      978.
    ##  8 Afghanistan Asia       1987    40.8 13867957      852.
    ##  9 Afghanistan Asia       1992    41.7 16317921      649.
    ## 10 Afghanistan Asia       1997    41.8 22227415      635.
    ## # ... with 1,694 more rows
…
    ## Classes 'tbl_df', 'tbl' and 'data.frame':    1680 obs. of  6 variables:
    ##  $ country  : Factor w/ 140 levels "Afghanistan",..: 1 1 1 1 1 1 1 1 1 1 ...
    ##  $ continent: Factor w/ 4 levels "Africa","Americas",..: 3 3 3 3 3 3 3 3 3 3 ...
    ##  $ year     : int  1952 1957 1962 1967 1972 1977 1982 1987 1992 1997 ...
    ##  $ lifeExp  : num  28.8 30.3 32 34 36.1 ...
    ##  $ pop      : int  8425333 9240934 10267083 11537966 13079460 14880372 12881816 13867957 16317921 22227415 ...
    ##  $ gdpPercap: num  779 821 853 836 740 ...

``` r
gap_OC
```

    ## # A tibble: 1,680 x 6
    ##    country     continent  year lifeExp      pop gdpPercap
    ##    <fct>       <fct>     <int>   <dbl>    <int>     <dbl>
    ##  1 Afghanistan Asia       1952    28.8  8425333      779.
    ##  2 Afghanistan Asia       1957    30.3  9240934      821.
    ##  3 Afghanistan Asia       1962    32.0 10267083      853.
    ##  4 Afghanistan Asia       1967    34.0 11537966      836.
    ##  5 Afghanistan Asia       1972    36.1 13079460      740.
    ##  6 Afghanistan Asia       1977    38.4 14880372      786.
    ##  7 Afghanistan Asia       1982    39.9 12881816      978.
    ##  8 Afghanistan Asia       1987    40.8 13867957      852.
    ##  9 Afghanistan Asia       1992    41.7 16317921      649.
    ## 10 Afghanistan Asia       1997    41.8 22227415      635.
    ## # ... with 1,670 more rows
…
If I arrange by descending life expectancy the figure does not change.
But I will see if the data is arranged differently.

``` r
arr_gap_OC <- arrange(gap_OC, desc(lifeExp))

arr_gap_OC
```

    ## # A tibble: 1,680 x 6
    ##    country          continent  year lifeExp       pop gdpPercap
    ##    <fct>            <fct>     <int>   <dbl>     <int>     <dbl>
    ##  1 Japan            Asia       2007    82.6 127467972    31656.
    ##  2 Hong Kong, China Asia       2007    82.2   6980412    39725.
    ##  3 Japan            Asia       2002    82   127065841    28605.
    ##  4 Iceland          Europe     2007    81.8    301931    36181.
    ##  5 Switzerland      Europe     2007    81.7   7554661    37506.
    ##  6 Hong Kong, China Asia       2002    81.5   6762476    30209.
    ##  7 Spain            Europe     2007    80.9  40448191    28821.
    ##  8 Sweden           Europe     2007    80.9   9031088    33860.
    ##  9 Israel           Asia       2007    80.7   6426679    25523.
    ## 10 Japan            Asia       1997    80.7 125956499    28817.
    ## # ... with 1,670 more rows
…
It’s nice to see the data here but I also want to create a file.

``` r
write.csv(gap_CE, file = "gap_CE.csv")
```

Now I will rearrange the data to see if it will save.

``` r
gap_CE %>% arrange(desc(country))
```

    ## # A tibble: 24 x 6
    ##    country continent  year lifeExp      pop gdpPercap
    ##    <fct>   <fct>     <int>   <dbl>    <int>     <dbl>
    ##  1 Egypt   Africa     1952    41.9 22223309     1419.
    ##  2 Egypt   Africa     1957    44.4 25009741     1459.
    ##  3 Egypt   Africa     1962    47.0 28173309     1693.
    ##  4 Egypt   Africa     1967    49.3 31681188     1815.
    ##  5 Egypt   Africa     1972    51.1 34807417     2024.
    ##  6 Egypt   Africa     1977    53.3 38783863     2785.
    ##  7 Egypt   Africa     1982    56.0 45681811     3504.
    ##  8 Egypt   Africa     1987    59.8 52799062     3885.
    ##  9 Egypt   Africa     1992    63.7 59402198     3795.
    ## 10 Egypt   Africa     1997    67.2 66134291     4173.
    ## # ... with 14 more rows
…
